; Engine configuration file.
; It's best edited using the editor UI and not directly,
; since the parameters that go here are not all obvious.
;
; Format:
;   [section] ; section goes between []
;   param=value ; assign values to parameters

config_version=4

_global_script_classes=[ {
"base": "KinematicBody2D",
"class": "Player",
"language": "GDScript",
"path": "res://Prefabs/Player/Player.gd"
} ]
_global_script_class_icons={
"Player": ""
}

[application]

config/name="BriansBrian"
run/main_scene="res://Scenes/Level1/Level1.tscn"
config/icon="res://icon.png"

[autoload]

Globals="*res://AutoLoads/Globals.gd"

[input]

open_door={
"deadzone": 0.5,
"events": [ Object(InputEventKey,"resource_local_to_scene":false,"resource_name":"","device":0,"alt":false,"shift":false,"control":false,"meta":false,"command":false,"pressed":false,"scancode":0,"physical_scancode":32,"unicode":0,"echo":false,"script":null)
 ]
}
pickup_key={
"deadzone": 0.5,
"events": [ Object(InputEventKey,"resource_local_to_scene":false,"resource_name":"","device":0,"alt":false,"shift":false,"control":false,"meta":false,"command":false,"pressed":false,"scancode":0,"physical_scancode":32,"unicode":0,"echo":false,"script":null)
 ]
}
map={
"deadzone": 0.5,
"events": [ Object(InputEventKey,"resource_local_to_scene":false,"resource_name":"","device":0,"alt":false,"shift":false,"control":false,"meta":false,"command":false,"pressed":false,"scancode":0,"physical_scancode":77,"unicode":0,"echo":false,"script":null)
 ]
}

[physics]

common/enable_pause_aware_picking=true

[rendering]

environment/default_environment="res://default_env.tres"
